bench/UART_induction.vcd
$var integer 32 t smt_step $end
$var event 1 ! smt_clock $end
$scope module test_UART $end
$var wire 1 n0 clk $end
$upscope $end
$scope module test_UART $end
$var wire 7 n1 cnt $end
$upscope $end
$scope module test_UART $end
$var wire 1 n2 data_is_valid $end
$upscope $end
$scope module test_UART $end
$var wire 1 n3 enable $end
$upscope $end
$scope module test_UART $end
$var wire 1 n4 has_been_enabled $end
$upscope $end
$scope module test_UART $end
$var wire 8 n5 i_data $end
$upscope $end
$scope module test_UART $end
$var wire 1 n6 o_busy $end
$upscope $end
$scope module test_UART $end
$var wire 8 n7 received_data $end
$upscope $end
$scope module test_UART $end
$var wire 1 n8 reset $end
$upscope $end
$scope module test_UART $end
$var wire 1 n9 rx_error $end
$upscope $end
$scope module test_UART $end
$var wire 1 n10 serial_in $end
$upscope $end
$scope module test_UART $end
$var wire 1 n11 serial_out $end
$upscope $end
$scope module test_UART $end
$var wire 4 n12 state $end
$upscope $end
$scope module test_UART $end
$scope module uart $end
$var wire 1 n13 clk $end
$upscope $end
$upscope $end
$scope module test_UART $end
$scope module uart $end
$var wire 1 n14 data_is_valid $end
$upscope $end
$upscope $end
$scope module test_UART $end
$scope module uart $end
$var wire 1 n15 enable $end
$upscope $end
$upscope $end
$scope module test_UART $end
$scope module uart $end
$var wire 8 n16 i_data $end
$upscope $end
$upscope $end
$scope module test_UART $end
$scope module uart $end
$var wire 1 n17 o_busy $end
$upscope $end
$upscope $end
$scope module test_UART $end
$scope module uart $end
$var wire 8 n18 received_data $end
$upscope $end
$upscope $end
$scope module test_UART $end
$scope module uart $end
$var wire 1 n19 reset $end
$upscope $end
$upscope $end
$scope module test_UART $end
$scope module uart $end
$scope module rx $end
$var wire 1 n20 clk $end
$upscope $end
$upscope $end
$upscope $end
$scope module test_UART $end
$scope module uart $end
$scope module rx $end
$scope module cp $end
$var wire 1 n21 clk $end
$upscope $end
$upscope $end
$upscope $end
$upscope $end
$scope module test_UART $end
$scope module uart $end
$scope module rx $end
$scope module cp $end
$var wire 1 n22 is_parity_stage $end
$upscope $end
$upscope $end
$upscope $end
$upscope $end
$scope module test_UART $end
$scope module uart $end
$scope module rx $end
$scope module cp $end
$var wire 1 n23 parity_bit $end
$upscope $end
$upscope $end
$upscope $end
$upscope $end
$scope module test_UART $end
$scope module uart $end
$scope module rx $end
$scope module cp $end
$var wire 1 n24 parity_value $end
$upscope $end
$upscope $end
$upscope $end
$upscope $end
$scope module test_UART $end
$scope module uart $end
$scope module rx $end
$scope module cp $end
$var wire 8 n25 received_data $end
$upscope $end
$upscope $end
$upscope $end
$upscope $end
$scope module test_UART $end
$scope module uart $end
$scope module rx $end
$scope module cp $end
$var wire 1 n26 rx_error $end
$upscope $end
$upscope $end
$upscope $end
$upscope $end
$scope module test_UART $end
$scope module uart $end
$scope module rx $end
$scope module cp $end
$var wire 1 n27 serial_in_synced $end
$upscope $end
$upscope $end
$upscope $end
$upscope $end
$scope module test_UART $end
$scope module uart $end
$scope module rx $end
$var wire 1 n28 data_is_available $end
$upscope $end
$upscope $end
$upscope $end
$scope module test_UART $end
$scope module uart $end
$scope module rx $end
$var wire 1 n29 data_is_valid $end
$upscope $end
$upscope $end
$upscope $end
$scope module test_UART $end
$scope module uart $end
$scope module rx $end
$var wire 1 n30 is_parity_stage $end
$upscope $end
$upscope $end
$upscope $end
$scope module test_UART $end
$scope module uart $end
$scope module rx $end
$var wire 8 n31 received_data $end
$upscope $end
$upscope $end
$upscope $end
$scope module test_UART $end
$scope module uart $end
$scope module rx $end
$var wire 1 n32 reset $end
$upscope $end
$upscope $end
$upscope $end
$scope module test_UART $end
$scope module uart $end
$scope module rx $end
$scope module rx $end
$scope module SIPO $end
$var wire 1 n33 clk $end
$upscope $end
$scope module SIPO $end
$var wire 1 n34 data_is_available $end
$upscope $end
$scope module SIPO $end
$var wire 8 n35 received_data $end
$upscope $end
$scope module SIPO $end
$var wire 1 n36 serial_in_synced $end
$upscope $end
$var wire 1 n37 clk $end
$var wire 1 n38 data_is_available $end
$var wire 1 n39 data_is_valid $end
$scope module dsb $end
$var wire 1 n40 clk $end
$upscope $end
$scope module dsb $end
$var wire 7 n41 clocks_since_start_bit $end
$upscope $end
$scope module dsb $end
$var wire 1 n42 falling_edge $end
$upscope $end
$scope module dsb $end
$var wire 1 n43 previously_idle $end
$upscope $end
$scope module dsb $end
$var wire 1 n44 serial_in_synced $end
$upscope $end
$scope module dsb $end
$var wire 1 n45 start_detected $end
$upscope $end
$var wire 1 n46 is_parity_stage $end
$var wire 8 n47 received_data $end
$var wire 1 n48 reset $end
$scope module rx_fsm $end
$var wire 1 n49 clk $end
$upscope $end
$scope module rx_fsm $end
$var wire 1 n50 data_is_available $end
$upscope $end
$scope module rx_fsm $end
$var wire 1 n51 data_is_valid $end
$upscope $end
$scope module rx_fsm $end
$var wire 1 n52 is_parity_stage $end
$upscope $end
$scope module rx_fsm $end
$var wire 1 n53 reset $end
$upscope $end
$scope module rx_fsm $end
$var wire 1 n54 sampling_strobe $end
$upscope $end
$scope module rx_fsm $end
$var wire 1 n55 start_detected $end
$upscope $end
$scope module rx_fsm $end
$var wire 4 n56 state $end
$upscope $end
$var wire 1 n57 sampling_strobe $end
$var wire 1 n58 serial_in_synced $end
$scope module ssg $end
$var wire 1 n59 clk $end
$upscope $end
$scope module ssg $end
$var wire 3 n60 counter $end
$upscope $end
$scope module ssg $end
$var wire 1 n61 sampling_strobe $end
$upscope $end
$scope module ssg $end
$var wire 1 n62 start_detected $end
$upscope $end
$var wire 1 n63 start_detected $end
$var wire 4 n64 state $end
$upscope $end
$upscope $end
$upscope $end
$upscope $end
$scope module test_UART $end
$scope module uart $end
$scope module rx $end
$var wire 1 n65 rx_error $end
$upscope $end
$upscope $end
$upscope $end
$scope module test_UART $end
$scope module uart $end
$scope module rx $end
$var wire 1 n66 serial_in $end
$upscope $end
$upscope $end
$upscope $end
$scope module test_UART $end
$scope module uart $end
$scope module rx $end
$var wire 1 n67 serial_in_synced $end
$upscope $end
$upscope $end
$upscope $end
$scope module test_UART $end
$scope module uart $end
$scope module rx $end
$var wire 4 n68 state $end
$upscope $end
$upscope $end
$upscope $end
$scope module test_UART $end
$scope module uart $end
$scope module rx $end
$scope module sync $end
$var wire 1 n69 clk $end
$upscope $end
$upscope $end
$upscope $end
$upscope $end
$scope module test_UART $end
$scope module uart $end
$scope module rx $end
$scope module sync $end
$var wire 1 n70 serial_in $end
$upscope $end
$upscope $end
$upscope $end
$upscope $end
$scope module test_UART $end
$scope module uart $end
$scope module rx $end
$scope module sync $end
$var wire 1 n71 serial_in_reg $end
$upscope $end
$upscope $end
$upscope $end
$upscope $end
$scope module test_UART $end
$scope module uart $end
$scope module rx $end
$scope module sync $end
$var wire 1 n72 serial_in_reg2 $end
$upscope $end
$upscope $end
$upscope $end
$upscope $end
$scope module test_UART $end
$scope module uart $end
$scope module rx $end
$scope module sync $end
$var wire 1 n73 serial_in_synced $end
$upscope $end
$upscope $end
$upscope $end
$upscope $end
$scope module test_UART $end
$scope module uart $end
$var wire 1 n74 rx_error $end
$upscope $end
$upscope $end
$scope module test_UART $end
$scope module uart $end
$var wire 1 n75 serial_in $end
$upscope $end
$upscope $end
$scope module test_UART $end
$scope module uart $end
$var wire 1 n76 serial_out $end
$upscope $end
$upscope $end
$scope module test_UART $end
$scope module uart $end
$var wire 4 n77 state $end
$upscope $end
$upscope $end
$scope module test_UART $end
$scope module uart $end
$scope module tx $end
$var wire 1 n78 baud_clk $end
$upscope $end
$upscope $end
$upscope $end
$scope module test_UART $end
$scope module uart $end
$scope module tx $end
$scope module bg $end
$var wire 1 n79 baud_clk $end
$upscope $end
$upscope $end
$upscope $end
$upscope $end
$scope module test_UART $end
$scope module uart $end
$scope module tx $end
$scope module bg $end
$var wire 1 n80 ck_stb $end
$upscope $end
$upscope $end
$upscope $end
$upscope $end
$scope module test_UART $end
$scope module uart $end
$scope module tx $end
$scope module bg $end
$var wire 1 n81 clk $end
$upscope $end
$upscope $end
$upscope $end
$upscope $end
$scope module test_UART $end
$scope module uart $end
$scope module tx $end
$scope module bg $end
$var wire 3 n82 cnt $end
$upscope $end
$upscope $end
$upscope $end
$upscope $end
$scope module test_UART $end
$scope module uart $end
$scope module tx $end
$var wire 1 n83 clk $end
$upscope $end
$upscope $end
$upscope $end
$scope module test_UART $end
$scope module uart $end
$scope module tx $end
$var wire 1 n84 enable $end
$upscope $end
$upscope $end
$upscope $end
$scope module test_UART $end
$scope module uart $end
$scope module tx $end
$var wire 8 n85 i_data $end
$upscope $end
$upscope $end
$upscope $end
$scope module test_UART $end
$scope module uart $end
$scope module tx $end
$var wire 1 n86 o_busy $end
$upscope $end
$upscope $end
$upscope $end
$scope module test_UART $end
$scope module uart $end
$scope module tx $end
$var wire 1 n87 parity_bit $end
$upscope $end
$upscope $end
$upscope $end
$scope module test_UART $end
$scope module uart $end
$scope module tx $end
$var wire 1 n88 reset $end
$upscope $end
$upscope $end
$upscope $end
$scope module test_UART $end
$scope module uart $end
$scope module tx $end
$var wire 1 n89 serial_out $end
$upscope $end
$upscope $end
$upscope $end
$scope module test_UART $end
$scope module uart $end
$scope module tx $end
$scope module tx $end
$var wire 1 n90 baud_clk $end
$var wire 1 n91 clk $end
$var wire 1 n92 enable $end
$var wire 9 n93 i_data $end
$var wire 1 n94 o_busy $end
$var wire 1 n95 reset $end
$var wire 1 n96 serial_out $end
$var wire 11 n97 shift_reg $end
$upscope $end
$upscope $end
$upscope $end
$upscope $end
$enddefinitions $end
#0
1!
b00000000000000000000000000000000 t
b0 n0
b0001001 n1
b0 n2
b0 n3
b1 n4
b00011100 n5
b1 n6
b11100000 n7
b0 n8
b0 n9
b0 n10
b0 n11
b0110 n12
b0 n13
b0 n14
b0 n15
b00011100 n16
b1 n17
b11100000 n18
b0 n19
b0 n20
b0 n21
b0 n22
b0 n23
b0 n24
b11100000 n25
b0 n26
b0 n27
b0 n28
b0 n29
b0 n30
b11100000 n31
b0 n32
b1 n33
b0 n34
b11100000 n35
b0 n36
b0 n37
b0 n38
b0 n39
b0 n40
b0101010 n41
b0 n42
b0 n43
b0 n44
b0 n45
b0 n46
b11100000 n47
b0 n48
b0 n49
b0 n50
b0 n51
b0 n52
b0 n53
b1 n54
b0 n55
b0110 n56
b1 n57
b0 n58
b0 n59
b101 n60
b1 n61
b0 n62
b0 n63
b0110 n64
b0 n65
b0 n66
b0 n67
b0110 n68
b0 n69
b0 n70
b0 n71
b1 n72
b0 n73
b0 n74
b0 n75
b0 n76
b0110 n77
b0 n78
b0 n79
b0 n80
b0 n81
b110 n82
b0 n83
b0 n84
b00011100 n85
b1 n86
b1 n87
b0 n88
b0 n89
b0 n90
b0 n91
b0 n92
b100011100 n93
b1 n94
b0 n95
b0 n96
b10000001110 n97
#10
1!
b00000000000000000000000000000001 t
b0 n0
b0001010 n1
b0 n2
b0 n3
b1 n4
b00011100 n5
b1 n6
b11100000 n7
b0 n8
b0 n9
b0 n10
b0 n11
b0111 n12
b0 n13
b0 n14
b0 n15
b00011100 n16
b1 n17
b11100000 n18
b0 n19
b0 n20
b0 n21
b0 n22
b0 n23
b0 n24
b11100000 n25
b0 n26
b1 n27
b1 n28
b0 n29
b0 n30
b11100000 n31
b0 n32
b0 n33
b1 n34
b11100000 n35
b1 n36
b0 n37
b1 n38
b0 n39
b0 n40
b0101011 n41
b0 n42
b0 n43
b1 n44
b0 n45
b0 n46
b11100000 n47
b0 n48
b0 n49
b1 n50
b0 n51
b0 n52
b0 n53
b0 n54
b0 n55
b0111 n56
b0 n57
b1 n58
b0 n59
b110 n60
b0 n61
b0 n62
b0 n63
b0111 n64
b0 n65
b0 n66
b1 n67
b0111 n68
b0 n69
b0 n70
b0 n71
b0 n72
b1 n73
b0 n74
b0 n75
b0 n76
b0111 n77
b0 n78
b0 n79
b0 n80
b0 n81
b111 n82
b0 n83
b0 n84
b00011100 n85
b1 n86
b1 n87
b0 n88
b0 n89
b0 n90
b0 n91
b0 n92
b100011100 n93
b1 n94
b0 n95
b0 n96
b10000001110 n97
#20
1!
b00000000000000000000000000000010 t
b0 n0
b0001011 n1
b0 n2
b0 n3
b1 n4
b00011100 n5
b1 n6
b11110000 n7
b0 n8
b0 n9
b0 n10
b0 n11
b0111 n12
b0 n13
b0 n14
b0 n15
b00011100 n16
b1 n17
b11110000 n18
b0 n19
b0 n20
b0 n21
b0 n22
b0 n23
b0 n24
b11110000 n25
b0 n26
b0 n27
b1 n28
b0 n29
b0 n30
b11110000 n31
b0 n32
b0 n33
b1 n34
b11110000 n35
b0 n36
b0 n37
b1 n38
b0 n39
b0 n40
b0101100 n41
b1 n42
b1 n43
b0 n44
b0 n45
b0 n46
b11110000 n47
b0 n48
b0 n49
b1 n50
b0 n51
b0 n52
b0 n53
b0 n54
b0 n55
b0111 n56
b0 n57
b0 n58
b0 n59
b111 n60
b0 n61
b0 n62
b0 n63
b0111 n64
b0 n65
b0 n66
b0 n67
b0111 n68
b0 n69
b0 n70
b0 n71
b0 n72
b0 n73
b0 n74
b0 n75
b0 n76
b0111 n77
b1 n78
b1 n79
b1 n80
b0 n81
b000 n82
b0 n83
b0 n84
b00011100 n85
b1 n86
b1 n87
b0 n88
b0 n89
b1 n90
b0 n91
b0 n92
b100011100 n93
b1 n94
b0 n95
b0 n96
b10000001110 n97
#30
1!
b00000000000000000000000000000011 t
b0 n0
b0001100 n1
b0 n2
b0 n3
b1 n4
b00011100 n5
b1 n6
b01111000 n7
b0 n8
b0 n9
b0 n10
b0 n11
b0111 n12
b0 n13
b0 n14
b0 n15
b00011100 n16
b1 n17
b01111000 n18
b0 n19
b0 n20
b0 n21
b0 n22
b0 n23
b0 n24
b01111000 n25
b0 n26
b0 n27
b1 n28
b0 n29
b0 n30
b01111000 n31
b0 n32
b1 n33
b1 n34
b01111000 n35
b0 n36
b0 n37
b1 n38
b0 n39
b0 n40
b0101101 n41
b0 n42
b0 n43
b0 n44
b0 n45
b0 n46
b01111000 n47
b0 n48
b0 n49
b1 n50
b0 n51
b0 n52
b0 n53
b1 n54
b0 n55
b0111 n56
b1 n57
b0 n58
b0 n59
b000 n60
b1 n61
b0 n62
b0 n63
b0111 n64
b0 n65
b0 n66
b0 n67
b0111 n68
b0 n69
b0 n70
b0 n71
b0 n72
b0 n73
b0 n74
b0 n75
b0 n76
b0111 n77
b0 n78
b0 n79
b0 n80
b0 n81
b001 n82
b0 n83
b0 n84
b00011100 n85
b1 n86
b1 n87
b0 n88
b0 n89
b0 n90
b0 n91
b0 n92
b100011100 n93
b1 n94
b0 n95
b0 n96
b01000000111 n97
#40
1!
b00000000000000000000000000000100 t
b0 n0
b0001101 n1
b0 n2
b0 n3
b1 n4
b00011100 n5
b1 n6
b00111100 n7
b0 n8
b0 n9
b0 n10
b0 n11
b1000 n12
b0 n13
b0 n14
b0 n15
b00011100 n16
b1 n17
b00111100 n18
b0 n19
b0 n20
b0 n21
b0 n22
b0 n23
b0 n24
b00111100 n25
b0 n26
b0 n27
b1 n28
b0 n29
b0 n30
b00111100 n31
b0 n32
b0 n33
b1 n34
b00111100 n35
b0 n36
b0 n37
b1 n38
b0 n39
b0 n40
b0101110 n41
b0 n42
b0 n43
b0 n44
b0 n45
b0 n46
b00111100 n47
b0 n48
b0 n49
b1 n50
b0 n51
b0 n52
b0 n53
b0 n54
b0 n55
b1000 n56
b0 n57
b0 n58
b0 n59
b001 n60
b0 n61
b0 n62
b0 n63
b1000 n64
b0 n65
b0 n66
b0 n67
b1000 n68
b0 n69
b0 n70
b0 n71
b0 n72
b0 n73
b0 n74
b0 n75
b0 n76
b1000 n77
b0 n78
b0 n79
b0 n80
b0 n81
b010 n82
b0 n83
b0 n84
b00011100 n85
b1 n86
b1 n87
b0 n88
b0 n89
b0 n90
b0 n91
b0 n92
b100011100 n93
b1 n94
b0 n95
b0 n96
b01000000111 n97
#50
1!
b00000000000000000000000000000101 t
b0 n0
b0001110 n1
b0 n2
b0 n3
b1 n4
b00011110 n5
b1 n6
b00011110 n7
b0 n8
b0 n9
b0 n10
b0 n11
b1000 n12
b0 n13
b0 n14
b0 n15
b00011110 n16
b1 n17
b00011110 n18
b0 n19
b0 n20
b0 n21
b0 n22
b0 n23
b0 n24
b00011110 n25
b0 n26
b0 n27
b1 n28
b0 n29
b0 n30
b00011110 n31
b0 n32
b0 n33
b1 n34
b00011110 n35
b0 n36
b0 n37
b1 n38
b0 n39
b0 n40
b0101111 n41
b0 n42
b0 n43
b0 n44
b0 n45
b0 n46
b00011110 n47
b0 n48
b0 n49
b1 n50
b0 n51
b0 n52
b0 n53
b0 n54
b0 n55
b1000 n56
b0 n57
b0 n58
b0 n59
b010 n60
b0 n61
b0 n62
b0 n63
b1000 n64
b0 n65
b0 n66
b0 n67
b1000 n68
b0 n69
b0 n70
b0 n71
b0 n72
b0 n73
b0 n74
b0 n75
b0 n76
b1000 n77
b0 n78
b0 n79
b0 n80
b0 n81
b011 n82
b0 n83
b0 n84
b00011110 n85
b1 n86
b0 n87
b0 n88
b0 n89
b0 n90
b0 n91
b0 n92
b000011110 n93
b1 n94
b0 n95
b0 n96
b01000000111 n97
#60
1!
b00000000000000000000000000000110 t
b0 n0
b0001111 n1
b0 n2
b0 n3
b1 n4
b00001111 n5
b1 n6
b00001111 n7
b0 n8
b0 n9
b0 n10
b0 n11
b1000 n12
b0 n13
b0 n14
b0 n15
b00001111 n16
b1 n17
b00001111 n18
b0 n19
b0 n20
b0 n21
b0 n22
b0 n23
b0 n24
b00001111 n25
b0 n26
b0 n27
b1 n28
b0 n29
b0 n30
b00001111 n31
b0 n32
b0 n33
b1 n34
b00001111 n35
b0 n36
b0 n37
b1 n38
b0 n39
b0 n40
b0110000 n41
b0 n42
b0 n43
b0 n44
b0 n45
b0 n46
b00001111 n47
b0 n48
b0 n49
b1 n50
b0 n51
b0 n52
b0 n53
b0 n54
b0 n55
b1000 n56
b0 n57
b0 n58
b0 n59
b011 n60
b0 n61
b0 n62
b0 n63
b1000 n64
b0 n65
b0 n66
b0 n67
b1000 n68
b0 n69
b0 n70
b0 n71
b0 n72
b0 n73
b0 n74
b0 n75
b0 n76
b1000 n77
b0 n78
b0 n79
b0 n80
b0 n81
b100 n82
b0 n83
b0 n84
b00001111 n85
b1 n86
b0 n87
b0 n88
b0 n89
b0 n90
b0 n91
b0 n92
b000001111 n93
b1 n94
b0 n95
b0 n96
b01000000111 n97
#70
1!
b00000000000000000000000000000111 t
b0 n0
b0010000 n1
b0 n2
b0 n3
b1 n4
b10000011 n5
b1 n6
b00000111 n7
b0 n8
b0 n9
b0 n10
b0 n11
b1000 n12
b0 n13
b0 n14
b0 n15
b10000011 n16
b1 n17
b00000111 n18
b0 n19
b0 n20
b0 n21
b0 n22
b0 n23
b0 n24
b00000111 n25
b0 n26
b0 n27
b1 n28
b0 n29
b0 n30
b00000111 n31
b0 n32
b0 n33
b1 n34
b00000111 n35
b0 n36
b0 n37
b1 n38
b0 n39
b0 n40
b0110001 n41
b0 n42
b0 n43
b0 n44
b0 n45
b0 n46
b00000111 n47
b0 n48
b0 n49
b1 n50
b0 n51
b0 n52
b0 n53
b0 n54
b0 n55
b1000 n56
b0 n57
b0 n58
b0 n59
b100 n60
b0 n61
b0 n62
b0 n63
b1000 n64
b0 n65
b0 n66
b0 n67
b1000 n68
b0 n69
b0 n70
b0 n71
b0 n72
b0 n73
b0 n74
b0 n75
b0 n76
b1000 n77
b0 n78
b0 n79
b0 n80
b0 n81
b101 n82
b0 n83
b0 n84
b10000011 n85
b1 n86
b1 n87
b0 n88
b0 n89
b0 n90
b0 n91
b0 n92
b110000011 n93
b1 n94
b0 n95
b0 n96
b01000000111 n97
#80
1!
b00000000000000000000000000001000 t
b0 n0
b0010001 n1
b0 n2
b0 n3
b1 n4
b00000011 n5
b1 n6
b00000011 n7
b0 n8
b0 n9
b0 n10
b0 n11
b1000 n12
b0 n13
b0 n14
b0 n15
b00000011 n16
b1 n17
b00000011 n18
b0 n19
b0 n20
b0 n21
b0 n22
b0 n23
b0 n24
b00000011 n25
b0 n26
b0 n27
b1 n28
b0 n29
b0 n30
b00000011 n31
b0 n32
b0 n33
b1 n34
b00000011 n35
b0 n36
b0 n37
b1 n38
b0 n39
b0 n40
b0110010 n41
b0 n42
b0 n43
b0 n44
b0 n45
b0 n46
b00000011 n47
b0 n48
b0 n49
b1 n50
b0 n51
b0 n52
b0 n53
b0 n54
b0 n55
b1000 n56
b0 n57
b0 n58
b0 n59
b101 n60
b0 n61
b0 n62
b0 n63
b1000 n64
b0 n65
b0 n66
b0 n67
b1000 n68
b0 n69
b0 n70
b0 n71
b0 n72
b0 n73
b0 n74
b0 n75
b0 n76
b1000 n77
b0 n78
b0 n79
b0 n80
b0 n81
b110 n82
b0 n83
b0 n84
b00000011 n85
b1 n86
b0 n87
b0 n88
b0 n89
b0 n90
b0 n91
b0 n92
b000000011 n93
b1 n94
b0 n95
b0 n96
b01000000111 n97
#90
1!
b00000000000000000000000000001001 t
b0 n0
b0010010 n1
b0 n2
b0 n3
b1 n4
b00000000 n5
b1 n6
b00000001 n7
b0 n8
b0 n9
b0 n10
b0 n11
b1000 n12
b0 n13
b0 n14
b0 n15
b00000000 n16
b1 n17
b00000001 n18
b0 n19
b0 n20
b0 n21
b0 n22
b0 n23
b0 n24
b00000001 n25
b0 n26
b0 n27
b1 n28
b0 n29
b0 n30
b00000001 n31
b0 n32
b0 n33
b1 n34
b00000001 n35
b0 n36
b0 n37
b1 n38
b0 n39
b0 n40
b0110011 n41
b0 n42
b0 n43
b0 n44
b0 n45
b0 n46
b00000001 n47
b0 n48
b0 n49
b1 n50
b0 n51
b0 n52
b0 n53
b0 n54
b0 n55
b1000 n56
b0 n57
b0 n58
b0 n59
b110 n60
b0 n61
b0 n62
b0 n63
b1000 n64
b0 n65
b0 n66
b0 n67
b1000 n68
b0 n69
b0 n70
b0 n71
b0 n72
b0 n73
b0 n74
b0 n75
b0 n76
b1000 n77
b0 n78
b0 n79
b0 n80
b0 n81
b111 n82
b0 n83
b0 n84
b00000000 n85
b1 n86
b0 n87
b0 n88
b0 n89
b0 n90
b0 n91
b0 n92
b000000000 n93
b1 n94
b0 n95
b0 n96
b01000000111 n97
#100
1!
b00000000000000000000000000001010 t
b0 n0
b0010011 n1
b0 n2
b0 n3
b1 n4
b00000000 n5
b1 n6
b00000000 n7
b0 n8
b0 n9
b0 n10
b0 n11
b1000 n12
b0 n13
b0 n14
b0 n15
b00000000 n16
b1 n17
b00000000 n18
b0 n19
b0 n20
b0 n21
b0 n22
b0 n23
b0 n24
b00000000 n25
b0 n26
b0 n27
b1 n28
b0 n29
b0 n30
b00000000 n31
b0 n32
b0 n33
b1 n34
b00000000 n35
b0 n36
b0 n37
b1 n38
b0 n39
b0 n40
b0110100 n41
b0 n42
b0 n43
b0 n44
b0 n45
b0 n46
b00000000 n47
b0 n48
b0 n49
b1 n50
b0 n51
b0 n52
b0 n53
b0 n54
b0 n55
b1000 n56
b0 n57
b0 n58
b0 n59
b111 n60
b0 n61
b0 n62
b0 n63
b1000 n64
b0 n65
b0 n66
b0 n67
b1000 n68
b0 n69
b0 n70
b0 n71
b0 n72
b0 n73
b0 n74
b0 n75
b0 n76
b1000 n77
b1 n78
b1 n79
b1 n80
b0 n81
b000 n82
b0 n83
b0 n84
b00000000 n85
b1 n86
b0 n87
b0 n88
b0 n89
b1 n90
b0 n91
b0 n92
b000000000 n93
b1 n94
b0 n95
b0 n96
b01000000111 n97
#110
1!
b00000000000000000000000000001011 t
b0 n0
b0010100 n1
b0 n2
b0 n3
b1 n4
b00000000 n5
b1 n6
b00000000 n7
b0 n8
b0 n9
b1 n10
b1 n11
b1000 n12
b0 n13
b0 n14
b0 n15
b00000000 n16
b1 n17
b00000000 n18
b0 n19
b0 n20
b0 n21
b0 n22
b0 n23
b0 n24
b00000000 n25
b0 n26
b0 n27
b1 n28
b0 n29
b0 n30
b00000000 n31
b0 n32
b1 n33
b1 n34
b00000000 n35
b0 n36
b0 n37
b1 n38
b0 n39
b0 n40
b0110101 n41
b0 n42
b0 n43
b0 n44
b0 n45
b0 n46
b00000000 n47
b0 n48
b0 n49
b1 n50
b0 n51
b0 n52
b0 n53
b1 n54
b0 n55
b1000 n56
b1 n57
b0 n58
b0 n59
b000 n60
b1 n61
b0 n62
b0 n63
b1000 n64
b0 n65
b1 n66
b0 n67
b1000 n68
b0 n69
b1 n70
b0 n71
b0 n72
b0 n73
b0 n74
b1 n75
b1 n76
b1000 n77
b0 n78
b0 n79
b0 n80
b0 n81
b001 n82
b0 n83
b0 n84
b00000000 n85
b1 n86
b0 n87
b0 n88
b1 n89
b0 n90
b0 n91
b0 n92
b000000000 n93
b1 n94
b0 n95
b1 n96
b00100000011 n97
#120
1!
b00000000000000000000000000001100 t
b0 n0
b0010101 n1
b0 n2
b0 n3
b1 n4
b00000000 n5
b1 n6
b00000000 n7
b0 n8
b0 n9
b1 n10
b1 n11
b1001 n12
b0 n13
b0 n14
b0 n15
b00000000 n16
b1 n17
b00000000 n18
b0 n19
b0 n20
b0 n21
b0 n22
b0 n23
b0 n24
b00000000 n25
b0 n26
b0 n27
b1 n28
b0 n29
b0 n30
b00000000 n31
b0 n32
b0 n33
b1 n34
b00000000 n35
b0 n36
b0 n37
b1 n38
b0 n39
b0 n40
b0110110 n41
b0 n42
b0 n43
b0 n44
b0 n45
b0 n46
b00000000 n47
b0 n48
b0 n49
b1 n50
b0 n51
b0 n52
b0 n53
b0 n54
b0 n55
b1001 n56
b0 n57
b0 n58
b0 n59
b001 n60
b0 n61
b0 n62
b0 n63
b1001 n64
b0 n65
b1 n66
b0 n67
b1001 n68
b0 n69
b1 n70
b1 n71
b0 n72
b0 n73
b0 n74
b1 n75
b1 n76
b1001 n77
b0 n78
b0 n79
b0 n80
b0 n81
b010 n82
b0 n83
b0 n84
b00000000 n85
b1 n86
b0 n87
b0 n88
b1 n89
b0 n90
b0 n91
b0 n92
b000000000 n93
b1 n94
b0 n95
b1 n96
b00100000011 n97
#130
1!
b00000000000000000000000000001101 t
b0 n0
b0010110 n1
b0 n2
b0 n3
b1 n4
b10000011 n5
b1 n6
b00000000 n7
b0 n8
b0 n9
b1 n10
b1 n11
b1001 n12
b0 n13
b0 n14
b0 n15
b10000011 n16
b1 n17
b00000000 n18
b0 n19
b0 n20
b0 n21
b0 n22
b0 n23
b0 n24
b00000000 n25
b0 n26
b0 n27
b1 n28
b0 n29
b0 n30
b00000000 n31
b0 n32
b0 n33
b1 n34
b00000000 n35
b0 n36
b0 n37
b1 n38
b0 n39
b0 n40
b0110111 n41
b0 n42
b0 n43
b0 n44
b0 n45
b0 n46
b00000000 n47
b0 n48
b0 n49
b1 n50
b0 n51
b0 n52
b0 n53
b0 n54
b0 n55
b1001 n56
b0 n57
b0 n58
b0 n59
b010 n60
b0 n61
b0 n62
b0 n63
b1001 n64
b0 n65
b1 n66
b0 n67
b1001 n68
b0 n69
b1 n70
b1 n71
b1 n72
b0 n73
b0 n74
b1 n75
b1 n76
b1001 n77
b0 n78
b0 n79
b0 n80
b0 n81
b011 n82
b0 n83
b0 n84
b10000011 n85
b1 n86
b1 n87
b0 n88
b1 n89
b0 n90
b0 n91
b0 n92
b110000011 n93
b1 n94
b0 n95
b1 n96
b00100000011 n97
#140
1!
b00000000000000000000000000001110 t
b0 n0
b0010111 n1
b0 n2
b0 n3
b1 n4
b00000011 n5
b1 n6
b00000000 n7
b0 n8
b0 n9
b1 n10
b1 n11
b1001 n12
b0 n13
b0 n14
b0 n15
b00000011 n16
b1 n17
b00000000 n18
b0 n19
b0 n20
b0 n21
b0 n22
b0 n23
b0 n24
b00000000 n25
b0 n26
b1 n27
b1 n28
b0 n29
b0 n30
b00000000 n31
b0 n32
b0 n33
b1 n34
b00000000 n35
b1 n36
b0 n37
b1 n38
b0 n39
b0 n40
b0111000 n41
b0 n42
b0 n43
b1 n44
b0 n45
b0 n46
b00000000 n47
b0 n48
b0 n49
b1 n50
b0 n51
b0 n52
b0 n53
b0 n54
b0 n55
b1001 n56
b0 n57
b1 n58
b0 n59
b011 n60
b0 n61
b0 n62
b0 n63
b1001 n64
b0 n65
b1 n66
b1 n67
b1001 n68
b0 n69
b1 n70
b1 n71
b1 n72
b1 n73
b0 n74
b1 n75
b1 n76
b1001 n77
b0 n78
b0 n79
b0 n80
b0 n81
b100 n82
b0 n83
b0 n84
b00000011 n85
b1 n86
b0 n87
b0 n88
b1 n89
b0 n90
b0 n91
b0 n92
b000000011 n93
b1 n94
b0 n95
b1 n96
b00100000011 n97
