bench/UART.vcd
$var integer 32 t smt_step $end
$var event 1 ! smt_clock $end
$scope module test_UART $end
$var wire 1 n0 clk $end
$upscope $end
$scope module test_UART $end
$var wire 1 n1 data_is_valid $end
$upscope $end
$scope module test_UART $end
$var wire 8 n2 i_data $end
$upscope $end
$scope module test_UART $end
$var wire 1 n3 o_busy $end
$upscope $end
$scope module test_UART $end
$var wire 8 n4 received_data $end
$upscope $end
$scope module test_UART $end
$var wire 1 n5 rx_error $end
$upscope $end
$scope module test_UART $end
$var wire 1 n6 serial_in $end
$upscope $end
$scope module test_UART $end
$var wire 1 n7 serial_out $end
$upscope $end
$scope module test_UART $end
$var wire 1 n8 start $end
$upscope $end
$scope module test_UART $end
$scope module uart $end
$var wire 1 n9 clk $end
$upscope $end
$upscope $end
$scope module test_UART $end
$scope module uart $end
$var wire 1 n10 data_is_valid $end
$upscope $end
$upscope $end
$scope module test_UART $end
$scope module uart $end
$var wire 8 n11 i_data $end
$upscope $end
$upscope $end
$scope module test_UART $end
$scope module uart $end
$var wire 1 n12 o_busy $end
$upscope $end
$upscope $end
$scope module test_UART $end
$scope module uart $end
$var wire 8 n13 received_data $end
$upscope $end
$upscope $end
$scope module test_UART $end
$scope module uart $end
$scope module rx $end
$scope module SIPO $end
$var wire 1 n14 clk $end
$upscope $end
$upscope $end
$upscope $end
$upscope $end
$scope module test_UART $end
$scope module uart $end
$scope module rx $end
$scope module SIPO $end
$var wire 1 n15 data_is_available $end
$upscope $end
$upscope $end
$upscope $end
$upscope $end
$scope module test_UART $end
$scope module uart $end
$scope module rx $end
$scope module SIPO $end
$var wire 8 n16 received_data $end
$upscope $end
$upscope $end
$upscope $end
$upscope $end
$scope module test_UART $end
$scope module uart $end
$scope module rx $end
$scope module SIPO $end
$var wire 1 n17 serial_in $end
$upscope $end
$upscope $end
$upscope $end
$upscope $end
$scope module test_UART $end
$scope module uart $end
$scope module rx $end
$var wire 1 n18 clk $end
$upscope $end
$upscope $end
$upscope $end
$scope module test_UART $end
$scope module uart $end
$scope module rx $end
$var wire 1 n19 data_is_available $end
$upscope $end
$upscope $end
$upscope $end
$scope module test_UART $end
$scope module uart $end
$scope module rx $end
$var wire 1 n20 data_is_valid $end
$upscope $end
$upscope $end
$upscope $end
$scope module test_UART $end
$scope module uart $end
$scope module rx $end
$var wire 8 n21 received_data $end
$upscope $end
$upscope $end
$upscope $end
$scope module test_UART $end
$scope module uart $end
$scope module rx $end
$scope module rx $end
$var wire 1 n22 clk $end
$var wire 1 n23 data_is_available $end
$var wire 1 n24 data_is_valid $end
$scope module dsb $end
$var wire 1 n25 clk $end
$upscope $end
$scope module dsb $end
$var wire 1 n26 previously_idle $end
$upscope $end
$scope module dsb $end
$var wire 1 n27 serial_in $end
$upscope $end
$scope module dsb $end
$var wire 1 n28 start_detected $end
$upscope $end
$var wire 1 n29 is_parity_stage $end
$var wire 1 n30 sampling_strobe $end
$var wire 1 n31 serial_in $end
$scope module ssg $end
$var wire 1 n32 clk $end
$upscope $end
$scope module ssg $end
$var wire 1 n33 sampling_strobe $end
$upscope $end
$scope module ssg $end
$var wire 1 n34 start_detected $end
$upscope $end
$var wire 1 n35 start_detected $end
$scope module state $end
$var wire 1 n36 clk $end
$upscope $end
$scope module state $end
$var wire 1 n37 data_is_available $end
$upscope $end
$scope module state $end
$var wire 1 n38 data_is_valid $end
$upscope $end
$scope module state $end
$var wire 1 n39 is_parity_stage $end
$upscope $end
$scope module state $end
$var wire 1 n40 sampling_strobe $end
$upscope $end
$scope module state $end
$var wire 1 n41 start_detected $end
$upscope $end
$scope module state $end
$var wire 4 n42 state $end
$upscope $end
$upscope $end
$upscope $end
$upscope $end
$upscope $end
$scope module test_UART $end
$scope module uart $end
$scope module rx $end
$var wire 1 n43 rx_error $end
$upscope $end
$upscope $end
$upscope $end
$scope module test_UART $end
$scope module uart $end
$scope module rx $end
$var wire 1 n44 serial_in $end
$upscope $end
$upscope $end
$upscope $end
$scope module test_UART $end
$scope module uart $end
$scope module rx $end
$var wire 1 n45 serial_in_synced $end
$upscope $end
$upscope $end
$upscope $end
$scope module test_UART $end
$scope module uart $end
$scope module rx $end
$scope module sync $end
$var wire 1 n46 clk $end
$upscope $end
$upscope $end
$upscope $end
$upscope $end
$scope module test_UART $end
$scope module uart $end
$scope module rx $end
$scope module sync $end
$var wire 1 n47 serial_in $end
$upscope $end
$upscope $end
$upscope $end
$upscope $end
$scope module test_UART $end
$scope module uart $end
$scope module rx $end
$scope module sync $end
$var wire 1 n48 serial_in_reg $end
$upscope $end
$upscope $end
$upscope $end
$upscope $end
$scope module test_UART $end
$scope module uart $end
$scope module rx $end
$scope module sync $end
$var wire 1 n49 serial_in_synced $end
$upscope $end
$upscope $end
$upscope $end
$upscope $end
$scope module test_UART $end
$scope module uart $end
$var wire 1 n50 rx_error $end
$upscope $end
$upscope $end
$scope module test_UART $end
$scope module uart $end
$var wire 1 n51 serial_in $end
$upscope $end
$upscope $end
$scope module test_UART $end
$scope module uart $end
$var wire 1 n52 serial_out $end
$upscope $end
$upscope $end
$scope module test_UART $end
$scope module uart $end
$var wire 1 n53 start $end
$upscope $end
$upscope $end
$scope module test_UART $end
$scope module uart $end
$scope module tx $end
$scope module PISO $end
$var wire 1 n54 clk $end
$upscope $end
$upscope $end
$upscope $end
$upscope $end
$scope module test_UART $end
$scope module uart $end
$scope module tx $end
$scope module PISO $end
$var wire 9 n55 data_in $end
$upscope $end
$upscope $end
$upscope $end
$upscope $end
$scope module test_UART $end
$scope module uart $end
$scope module tx $end
$scope module PISO $end
$var wire 1 n56 data_out $end
$upscope $end
$upscope $end
$upscope $end
$upscope $end
$scope module test_UART $end
$scope module uart $end
$scope module tx $end
$scope module PISO $end
$var wire 9 n57 data_shift_reg $end
$upscope $end
$upscope $end
$upscope $end
$upscope $end
$scope module test_UART $end
$scope module uart $end
$scope module tx $end
$scope module PISO $end
$var wire 1 n58 valid $end
$upscope $end
$upscope $end
$upscope $end
$upscope $end
$scope module test_UART $end
$scope module uart $end
$scope module tx $end
$var wire 1 n59 baud_clk $end
$upscope $end
$upscope $end
$upscope $end
$scope module test_UART $end
$scope module uart $end
$scope module tx $end
$scope module bg $end
$var wire 1 n60 baud_clk $end
$upscope $end
$upscope $end
$upscope $end
$upscope $end
$scope module test_UART $end
$scope module uart $end
$scope module tx $end
$scope module bg $end
$var wire 1 n61 clk $end
$upscope $end
$upscope $end
$upscope $end
$upscope $end
$scope module test_UART $end
$scope module uart $end
$scope module tx $end
$var wire 1 n62 clk $end
$upscope $end
$upscope $end
$upscope $end
$scope module test_UART $end
$scope module uart $end
$scope module tx $end
$var wire 1 n63 enable $end
$upscope $end
$upscope $end
$upscope $end
$scope module test_UART $end
$scope module uart $end
$scope module tx $end
$var wire 8 n64 i_data $end
$upscope $end
$upscope $end
$upscope $end
$scope module test_UART $end
$scope module uart $end
$scope module tx $end
$var wire 1 n65 o_busy $end
$upscope $end
$upscope $end
$upscope $end
$scope module test_UART $end
$scope module uart $end
$scope module tx $end
$var wire 1 n66 parity_bit $end
$upscope $end
$upscope $end
$upscope $end
$scope module test_UART $end
$scope module uart $end
$scope module tx $end
$var wire 1 n67 serial_out $end
$upscope $end
$upscope $end
$upscope $end
$scope module test_UART $end
$scope module uart $end
$scope module tx $end
$var wire 1 n68 start $end
$upscope $end
$upscope $end
$upscope $end
$scope module test_UART $end
$scope module uart $end
$scope module tx $end
$var wire 1 n69 start_tx $end
$upscope $end
$upscope $end
$upscope $end
$scope module test_UART $end
$scope module uart $end
$scope module tx $end
$scope module tx $end
$var wire 1 n70 baud_clk $end
$var wire 1 n71 clk $end
$var wire 1 n72 enable $end
$var wire 8 n73 i_data $end
$var wire 1 n74 o_busy $end
$var wire 1 n75 start_tx $end
$var wire 4 n76 state $end
$upscope $end
$upscope $end
$upscope $end
$upscope $end
$enddefinitions $end
#0
1!
b00000000000000000000000000000000 t
b0 n0
b0 n1
b00000000 n2
b0 n3
b00000000 n4
b0 n5
b1 n6
b1 n7
b0 n8
b0 n9
b0 n10
b00000000 n11
b0 n12
b00000000 n13
b0 n14
b0 n15
b00000000 n16
b0 n17
b0 n18
b0 n19
b0 n20
b00000000 n21
b0 n22
b0 n23
b0 n24
b0 n25
b1 n26
b0 n27
b0 n28
b0 n29
b0 n30
b0 n31
b0 n32
b0 n33
b0 n34
b0 n35
b0 n36
b0 n37
b0 n38
b0 n39
b0 n40
b0 n41
b0000 n42
b0 n43
b1 n44
b0 n45
b0 n46
b1 n47
b0 n48
b0 n49
b0 n50
b1 n51
b1 n52
b0 n53
b0 n54
b000000000 n55
b1 n56
b000000000 n57
b0 n58
b0 n59
b0 n60
b0 n61
b0 n62
b0 n63
b00000000 n64
b0 n65
b0 n66
b1 n67
b0 n68
b0 n69
b0 n70
b0 n71
b0 n72
b00000000 n73
b0 n74
b0 n75
b0000 n76
#10
1!
b00000000000000000000000000000001 t
b0 n0
b0 n1
b00000000 n2
b0 n3
b00000000 n4
b0 n5
b0 n6
b0 n7
b0 n8
b0 n9
b0 n10
b00000000 n11
b0 n12
b00000000 n13
b0 n14
b0 n15
b00000000 n16
b0 n17
b0 n18
b0 n19
b0 n20
b00000000 n21
b0 n22
b0 n23
b0 n24
b0 n25
b0 n26
b0 n27
b1 n28
b0 n29
b0 n30
b0 n31
b0 n32
b0 n33
b1 n34
b1 n35
b0 n36
b0 n37
b0 n38
b0 n39
b0 n40
b1 n41
b0000 n42
b0 n43
b0 n44
b0 n45
b0 n46
b0 n47
b1 n48
b0 n49
b0 n50
b0 n51
b0 n52
b0 n53
b0 n54
b000000000 n55
b0 n56
b100000000 n57
b0 n58
b0 n59
b0 n60
b0 n61
b0 n62
b0 n63
b00000000 n64
b0 n65
b0 n66
b0 n67
b0 n68
b0 n69
b0 n70
b0 n71
b0 n72
b00000000 n73
b0 n74
b0 n75
b0000 n76
#20
1!
b00000000000000000000000000000010 t
b0 n0
b0 n1
b00000000 n2
b0 n3
b00000000 n4
b0 n5
b0 n6
b0 n7
b0 n8
b0 n9
b0 n10
b00000000 n11
b0 n12
b00000000 n13
b0 n14
b0 n15
b00000000 n16
b1 n17
b0 n18
b0 n19
b0 n20
b00000000 n21
b0 n22
b0 n23
b0 n24
b0 n25
b0 n26
b1 n27
b0 n28
b0 n29
b0 n30
b1 n31
b0 n32
b0 n33
b0 n34
b0 n35
b0 n36
b0 n37
b0 n38
b0 n39
b0 n40
b0 n41
b0000 n42
b0 n43
b0 n44
b1 n45
b0 n46
b0 n47
b0 n48
b1 n49
b0 n50
b0 n51
b0 n52
b0 n53
b0 n54
b000000000 n55
b0 n56
b110000000 n57
b0 n58
b0 n59
b0 n60
b0 n61
b0 n62
b0 n63
b00000000 n64
b0 n65
b0 n66
b0 n67
b0 n68
b0 n69
b0 n70
b0 n71
b0 n72
b00000000 n73
b0 n74
b0 n75
b0000 n76
#30
1!
b00000000000000000000000000000011 t
b0 n0
b0 n1
b00000000 n2
b0 n3
b00000000 n4
b0 n5
b0 n6
b0 n7
b0 n8
b0 n9
b0 n10
b00000000 n11
b0 n12
b00000000 n13
b0 n14
b0 n15
b00000000 n16
b0 n17
b0 n18
b0 n19
b0 n20
b00000000 n21
b0 n22
b0 n23
b0 n24
b0 n25
b1 n26
b0 n27
b0 n28
b0 n29
b0 n30
b0 n31
b0 n32
b0 n33
b0 n34
b0 n35
b0 n36
b0 n37
b0 n38
b0 n39
b0 n40
b0 n41
b0000 n42
b0 n43
b0 n44
b0 n45
b0 n46
b0 n47
b0 n48
b0 n49
b0 n50
b0 n51
b0 n52
b0 n53
b0 n54
b000000000 n55
b0 n56
b111000000 n57
b0 n58
b0 n59
b0 n60
b0 n61
b0 n62
b0 n63
b00000000 n64
b0 n65
b0 n66
b0 n67
b0 n68
b0 n69
b0 n70
b0 n71
b0 n72
b00000000 n73
b0 n74
b0 n75
b0000 n76
#40
1!
b00000000000000000000000000000100 t
b0 n0
b0 n1
b00000000 n2
b0 n3
b00000000 n4
b0 n5
b0 n6
b0 n7
b0 n8
b0 n9
b0 n10
b00000000 n11
b0 n12
b00000000 n13
b0 n14
b0 n15
b00000000 n16
b0 n17
b0 n18
b0 n19
b0 n20
b00000000 n21
b0 n22
b0 n23
b0 n24
b0 n25
b0 n26
b0 n27
b1 n28
b0 n29
b0 n30
b0 n31
b0 n32
b0 n33
b1 n34
b1 n35
b0 n36
b0 n37
b0 n38
b0 n39
b0 n40
b1 n41
b0000 n42
b0 n43
b0 n44
b0 n45
b0 n46
b0 n47
b0 n48
b0 n49
b0 n50
b0 n51
b0 n52
b0 n53
b0 n54
b000000000 n55
b0 n56
b111100000 n57
b0 n58
b0 n59
b0 n60
b0 n61
b0 n62
b0 n63
b00000000 n64
b0 n65
b0 n66
b0 n67
b0 n68
b0 n69
b0 n70
b0 n71
b0 n72
b00000000 n73
b0 n74
b0 n75
b0000 n76
#50
1!
b00000000000000000000000000000101 t
b0 n0
b0 n1
b00000000 n2
b0 n3
b00000000 n4
b0 n5
b0 n6
b0 n7
b0 n8
b0 n9
b0 n10
b00000000 n11
b0 n12
b00000000 n13
b0 n14
b0 n15
b00000000 n16
b0 n17
b0 n18
b0 n19
b0 n20
b00000000 n21
b0 n22
b0 n23
b0 n24
b0 n25
b0 n26
b0 n27
b0 n28
b0 n29
b0 n30
b0 n31
b0 n32
b0 n33
b0 n34
b0 n35
b0 n36
b0 n37
b0 n38
b0 n39
b0 n40
b0 n41
b0000 n42
b0 n43
b0 n44
b0 n45
b0 n46
b0 n47
b0 n48
b0 n49
b0 n50
b0 n51
b0 n52
b0 n53
b0 n54
b000000000 n55
b0 n56
b111110000 n57
b0 n58
b0 n59
b0 n60
b0 n61
b0 n62
b0 n63
b00000000 n64
b0 n65
b0 n66
b0 n67
b0 n68
b0 n69
b0 n70
b0 n71
b0 n72
b00000000 n73
b0 n74
b0 n75
b0000 n76
#60
1!
b00000000000000000000000000000110 t
b0 n0
b0 n1
b00000000 n2
b0 n3
b00000000 n4
b0 n5
b0 n6
b0 n7
b0 n8
b0 n9
b0 n10
b00000000 n11
b0 n12
b00000000 n13
b0 n14
b0 n15
b00000000 n16
b0 n17
b0 n18
b0 n19
b0 n20
b00000000 n21
b0 n22
b0 n23
b0 n24
b0 n25
b0 n26
b0 n27
b0 n28
b0 n29
b0 n30
b0 n31
b0 n32
b0 n33
b0 n34
b0 n35
b0 n36
b0 n37
b0 n38
b0 n39
b0 n40
b0 n41
b0000 n42
b0 n43
b0 n44
b0 n45
b0 n46
b0 n47
b0 n48
b0 n49
b0 n50
b0 n51
b0 n52
b0 n53
b0 n54
b000000000 n55
b0 n56
b111111000 n57
b0 n58
b0 n59
b0 n60
b0 n61
b0 n62
b0 n63
b00000000 n64
b0 n65
b0 n66
b0 n67
b0 n68
b0 n69
b0 n70
b0 n71
b0 n72
b00000000 n73
b0 n74
b0 n75
b0000 n76
#70
1!
b00000000000000000000000000000111 t
b0 n0
b0 n1
b00000000 n2
b0 n3
b00000000 n4
b0 n5
b0 n6
b0 n7
b0 n8
b0 n9
b0 n10
b00000000 n11
b0 n12
b00000000 n13
b0 n14
b0 n15
b00000000 n16
b0 n17
b0 n18
b0 n19
b0 n20
b00000000 n21
b0 n22
b0 n23
b0 n24
b0 n25
b0 n26
b0 n27
b0 n28
b0 n29
b0 n30
b0 n31
b0 n32
b0 n33
b0 n34
b0 n35
b0 n36
b0 n37
b0 n38
b0 n39
b0 n40
b0 n41
b0000 n42
b0 n43
b0 n44
b0 n45
b0 n46
b0 n47
b0 n48
b0 n49
b0 n50
b0 n51
b0 n52
b0 n53
b0 n54
b000000000 n55
b0 n56
b111111100 n57
b0 n58
b0 n59
b0 n60
b0 n61
b0 n62
b0 n63
b00000000 n64
b0 n65
b0 n66
b0 n67
b0 n68
b0 n69
b0 n70
b0 n71
b0 n72
b00000000 n73
b0 n74
b0 n75
b0000 n76
#80
1!
b00000000000000000000000000001000 t
b0 n0
b0 n1
b00000000 n2
b0 n3
b00000000 n4
b0 n5
b0 n6
b0 n7
b0 n8
b0 n9
b0 n10
b00000000 n11
b0 n12
b00000000 n13
b0 n14
b0 n15
b00000000 n16
b0 n17
b0 n18
b0 n19
b0 n20
b00000000 n21
b0 n22
b0 n23
b0 n24
b0 n25
b0 n26
b0 n27
b0 n28
b0 n29
b0 n30
b0 n31
b0 n32
b0 n33
b0 n34
b0 n35
b0 n36
b0 n37
b0 n38
b0 n39
b0 n40
b0 n41
b0000 n42
b0 n43
b0 n44
b0 n45
b0 n46
b0 n47
b0 n48
b0 n49
b0 n50
b0 n51
b0 n52
b0 n53
b0 n54
b000000000 n55
b0 n56
b111111110 n57
b0 n58
b0 n59
b0 n60
b0 n61
b0 n62
b0 n63
b00000000 n64
b0 n65
b0 n66
b0 n67
b0 n68
b0 n69
b0 n70
b0 n71
b0 n72
b00000000 n73
b0 n74
b0 n75
b0000 n76
#90
1!
b00000000000000000000000000001001 t
b0 n0
b0 n1
b00000000 n2
b0 n3
b00000000 n4
b0 n5
b0 n6
b0 n7
b0 n8
b0 n9
b0 n10
b00000000 n11
b0 n12
b00000000 n13
b0 n14
b0 n15
b00000000 n16
b0 n17
b0 n18
b0 n19
b0 n20
b00000000 n21
b0 n22
b0 n23
b0 n24
b0 n25
b0 n26
b0 n27
b0 n28
b0 n29
b0 n30
b0 n31
b0 n32
b0 n33
b0 n34
b0 n35
b0 n36
b0 n37
b0 n38
b0 n39
b0 n40
b0 n41
b0000 n42
b0 n43
b0 n44
b0 n45
b0 n46
b0 n47
b0 n48
b0 n49
b0 n50
b0 n51
b0 n52
b0 n53
b0 n54
b000000000 n55
b0 n56
b111111111 n57
b0 n58
b0 n59
b0 n60
b0 n61
b0 n62
b0 n63
b00000000 n64
b0 n65
b0 n66
b0 n67
b0 n68
b0 n69
b0 n70
b0 n71
b0 n72
b00000000 n73
b0 n74
b0 n75
b0000 n76
#100
1!
b00000000000000000000000000001010 t
b0 n0
b0 n1
b00000000 n2
b0 n3
b00000000 n4
b0 n5
b1 n6
b1 n7
b0 n8
b0 n9
b0 n10
b00000000 n11
b0 n12
b00000000 n13
b0 n14
b0 n15
b00000000 n16
b0 n17
b0 n18
b0 n19
b0 n20
b00000000 n21
b0 n22
b0 n23
b0 n24
b0 n25
b0 n26
b0 n27
b0 n28
b0 n29
b0 n30
b0 n31
b0 n32
b0 n33
b0 n34
b0 n35
b0 n36
b0 n37
b0 n38
b0 n39
b0 n40
b0 n41
b0000 n42
b0 n43
b1 n44
b0 n45
b0 n46
b1 n47
b0 n48
b0 n49
b0 n50
b1 n51
b1 n52
b0 n53
b0 n54
b000000000 n55
b1 n56
b111111111 n57
b0 n58
b0 n59
b0 n60
b0 n61
b0 n62
b0 n63
b00000000 n64
b0 n65
b0 n66
b1 n67
b0 n68
b0 n69
b0 n70
b0 n71
b0 n72
b00000000 n73
b0 n74
b0 n75
b0000 n76
#110
1!
b00000000000000000000000000001011 t
b0 n0
b0 n1
b00000000 n2
b0 n3
b00000000 n4
b0 n5
b1 n6
b1 n7
b0 n8
b0 n9
b0 n10
b00000000 n11
b0 n12
b00000000 n13
b0 n14
b0 n15
b00000000 n16
b0 n17
b0 n18
b0 n19
b0 n20
b00000000 n21
b0 n22
b0 n23
b0 n24
b0 n25
b0 n26
b0 n27
b0 n28
b0 n29
b0 n30
b0 n31
b0 n32
b0 n33
b0 n34
b0 n35
b0 n36
b0 n37
b0 n38
b0 n39
b0 n40
b0 n41
b0000 n42
b0 n43
b1 n44
b0 n45
b0 n46
b1 n47
b1 n48
b0 n49
b0 n50
b1 n51
b1 n52
b0 n53
b0 n54
b000000000 n55
b1 n56
b111111111 n57
b0 n58
b0 n59
b0 n60
b0 n61
b0 n62
b0 n63
b00000000 n64
b0 n65
b0 n66
b1 n67
b0 n68
b0 n69
b0 n70
b0 n71
b0 n72
b00000000 n73
b0 n74
b0 n75
b0000 n76
#120
1!
b00000000000000000000000000001100 t
b0 n0
b0 n1
b00000000 n2
b0 n3
b00000000 n4
b0 n5
b1 n6
b1 n7
b0 n8
b0 n9
b0 n10
b00000000 n11
b0 n12
b00000000 n13
b0 n14
b0 n15
b00000000 n16
b1 n17
b0 n18
b0 n19
b0 n20
b00000000 n21
b0 n22
b0 n23
b0 n24
b0 n25
b0 n26
b1 n27
b0 n28
b0 n29
b0 n30
b1 n31
b0 n32
b0 n33
b0 n34
b0 n35
b0 n36
b0 n37
b0 n38
b0 n39
b0 n40
b0 n41
b0000 n42
b0 n43
b1 n44
b1 n45
b0 n46
b1 n47
b1 n48
b1 n49
b0 n50
b1 n51
b1 n52
b0 n53
b0 n54
b000000000 n55
b1 n56
b111111111 n57
b0 n58
b0 n59
b0 n60
b0 n61
b0 n62
b0 n63
b00000000 n64
b0 n65
b0 n66
b1 n67
b0 n68
b0 n69
b0 n70
b0 n71
b0 n72
b00000000 n73
b0 n74
b0 n75
b0000 n76
#130
1!
b00000000000000000000000000001101 t
b0 n0
b0 n1
b00000000 n2
b0 n3
b00000000 n4
b0 n5
b1 n6
b1 n7
b0 n8
b0 n9
b0 n10
b00000000 n11
b0 n12
b00000000 n13
b0 n14
b0 n15
b00000000 n16
b1 n17
b0 n18
b0 n19
b0 n20
b00000000 n21
b0 n22
b0 n23
b0 n24
b0 n25
b1 n26
b1 n27
b0 n28
b0 n29
b0 n30
b1 n31
b0 n32
b0 n33
b0 n34
b0 n35
b0 n36
b0 n37
b0 n38
b0 n39
b0 n40
b0 n41
b0000 n42
b0 n43
b1 n44
b1 n45
b0 n46
b1 n47
b1 n48
b1 n49
b0 n50
b1 n51
b1 n52
b0 n53
b0 n54
b000000000 n55
b1 n56
b111111111 n57
b0 n58
b0 n59
b0 n60
b0 n61
b0 n62
b0 n63
b00000000 n64
b0 n65
b0 n66
b1 n67
b0 n68
b0 n69
b0 n70
b0 n71
b0 n72
b00000000 n73
b0 n74
b0 n75
b0000 n76
#140
1!
b00000000000000000000000000001110 t
b0 n0
b0 n1
b00000000 n2
b0 n3
b00000000 n4
b0 n5
b1 n6
b1 n7
b0 n8
b0 n9
b0 n10
b00000000 n11
b0 n12
b00000000 n13
b0 n14
b0 n15
b00000000 n16
b1 n17
b0 n18
b0 n19
b0 n20
b00000000 n21
b0 n22
b0 n23
b0 n24
b0 n25
b1 n26
b1 n27
b0 n28
b0 n29
b0 n30
b1 n31
b0 n32
b0 n33
b0 n34
b0 n35
b0 n36
b0 n37
b0 n38
b0 n39
b0 n40
b0 n41
b0000 n42
b0 n43
b1 n44
b1 n45
b0 n46
b1 n47
b1 n48
b1 n49
b0 n50
b1 n51
b1 n52
b0 n53
b0 n54
b000000000 n55
b1 n56
b111111111 n57
b0 n58
b0 n59
b0 n60
b0 n61
b0 n62
b0 n63
b00000000 n64
b0 n65
b0 n66
b1 n67
b0 n68
b0 n69
b0 n70
b0 n71
b0 n72
b00000000 n73
b0 n74
b0 n75
b0000 n76
#150
1!
b00000000000000000000000000001111 t
b0 n0
b0 n1
b00000000 n2
b0 n3
b00000000 n4
b0 n5
b1 n6
b1 n7
b0 n8
b0 n9
b0 n10
b00000000 n11
b0 n12
b00000000 n13
b0 n14
b0 n15
b00000000 n16
b1 n17
b0 n18
b0 n19
b0 n20
b00000000 n21
b0 n22
b0 n23
b0 n24
b0 n25
b1 n26
b1 n27
b0 n28
b0 n29
b0 n30
b1 n31
b0 n32
b0 n33
b0 n34
b0 n35
b0 n36
b0 n37
b0 n38
b0 n39
b0 n40
b0 n41
b0000 n42
b0 n43
b1 n44
b1 n45
b0 n46
b1 n47
b1 n48
b1 n49
b0 n50
b1 n51
b1 n52
b0 n53
b0 n54
b000000000 n55
b1 n56
b111111111 n57
b0 n58
b0 n59
b0 n60
b0 n61
b0 n62
b0 n63
b00000000 n64
b0 n65
b0 n66
b1 n67
b0 n68
b0 n69
b0 n70
b0 n71
b0 n72
b00000000 n73
b0 n74
b0 n75
b0000 n76
#160
1!
b00000000000000000000000000010000 t
b0 n0
b0 n1
b00000000 n2
b0 n3
b00000000 n4
b0 n5
b1 n6
b1 n7
b0 n8
b0 n9
b0 n10
b00000000 n11
b0 n12
b00000000 n13
b0 n14
b0 n15
b00000000 n16
b1 n17
b0 n18
b0 n19
b0 n20
b00000000 n21
b0 n22
b0 n23
b0 n24
b0 n25
b1 n26
b1 n27
b0 n28
b0 n29
b0 n30
b1 n31
b0 n32
b0 n33
b0 n34
b0 n35
b0 n36
b0 n37
b0 n38
b0 n39
b0 n40
b0 n41
b0000 n42
b0 n43
b1 n44
b1 n45
b0 n46
b1 n47
b1 n48
b1 n49
b0 n50
b1 n51
b1 n52
b0 n53
b0 n54
b000000000 n55
b1 n56
b111111111 n57
b0 n58
b0 n59
b0 n60
b0 n61
b0 n62
b0 n63
b00000000 n64
b0 n65
b0 n66
b1 n67
b0 n68
b0 n69
b0 n70
b0 n71
b0 n72
b00000000 n73
b0 n74
b0 n75
b0000 n76
#170
1!
b00000000000000000000000000010001 t
b0 n0
b0 n1
b00000000 n2
b0 n3
b00000000 n4
b0 n5
b1 n6
b1 n7
b0 n8
b0 n9
b0 n10
b00000000 n11
b0 n12
b00000000 n13
b0 n14
b0 n15
b00000000 n16
b1 n17
b0 n18
b0 n19
b0 n20
b00000000 n21
b0 n22
b0 n23
b0 n24
b0 n25
b1 n26
b1 n27
b0 n28
b0 n29
b0 n30
b1 n31
b0 n32
b0 n33
b0 n34
b0 n35
b0 n36
b0 n37
b0 n38
b0 n39
b0 n40
b0 n41
b0000 n42
b0 n43
b1 n44
b1 n45
b0 n46
b1 n47
b1 n48
b1 n49
b0 n50
b1 n51
b1 n52
b0 n53
b0 n54
b000000000 n55
b1 n56
b111111111 n57
b0 n58
b0 n59
b0 n60
b0 n61
b0 n62
b0 n63
b00000000 n64
b0 n65
b0 n66
b1 n67
b0 n68
b0 n69
b0 n70
b0 n71
b0 n72
b00000000 n73
b0 n74
b0 n75
b0000 n76
#180
1!
b00000000000000000000000000010010 t
b0 n0
b0 n1
b00000000 n2
b0 n3
b00000000 n4
b0 n5
b1 n6
b1 n7
b0 n8
b0 n9
b0 n10
b00000000 n11
b0 n12
b00000000 n13
b0 n14
b0 n15
b00000000 n16
b1 n17
b0 n18
b0 n19
b0 n20
b00000000 n21
b0 n22
b0 n23
b0 n24
b0 n25
b1 n26
b1 n27
b0 n28
b0 n29
b0 n30
b1 n31
b0 n32
b0 n33
b0 n34
b0 n35
b0 n36
b0 n37
b0 n38
b0 n39
b0 n40
b0 n41
b0000 n42
b0 n43
b1 n44
b1 n45
b0 n46
b1 n47
b1 n48
b1 n49
b0 n50
b1 n51
b1 n52
b0 n53
b0 n54
b000000000 n55
b1 n56
b111111111 n57
b0 n58
b0 n59
b0 n60
b0 n61
b0 n62
b0 n63
b00000000 n64
b0 n65
b0 n66
b1 n67
b0 n68
b0 n69
b0 n70
b0 n71
b0 n72
b00000000 n73
b0 n74
b0 n75
b0000 n76
#190
1!
b00000000000000000000000000010011 t
b0 n0
b0 n1
b00000000 n2
b0 n3
b00000000 n4
b0 n5
b1 n6
b1 n7
b0 n8
b0 n9
b0 n10
b00000000 n11
b0 n12
b00000000 n13
b0 n14
b0 n15
b00000000 n16
b1 n17
b0 n18
b0 n19
b0 n20
b00000000 n21
b0 n22
b0 n23
b0 n24
b0 n25
b1 n26
b1 n27
b0 n28
b0 n29
b0 n30
b1 n31
b0 n32
b0 n33
b0 n34
b0 n35
b0 n36
b0 n37
b0 n38
b0 n39
b0 n40
b0 n41
b0000 n42
b0 n43
b1 n44
b1 n45
b0 n46
b1 n47
b1 n48
b1 n49
b0 n50
b1 n51
b1 n52
b0 n53
b0 n54
b000000000 n55
b1 n56
b111111111 n57
b0 n58
b0 n59
b0 n60
b0 n61
b0 n62
b0 n63
b00000000 n64
b0 n65
b0 n66
b1 n67
b0 n68
b0 n69
b0 n70
b0 n71
b0 n72
b00000000 n73
b0 n74
b0 n75
b0000 n76
#200
1!
b00000000000000000000000000010100 t
b0 n0
b0 n1
b00000000 n2
b0 n3
b00000000 n4
b0 n5
b1 n6
b1 n7
b0 n8
b0 n9
b0 n10
b00000000 n11
b0 n12
b00000000 n13
b0 n14
b0 n15
b00000000 n16
b1 n17
b0 n18
b0 n19
b0 n20
b00000000 n21
b0 n22
b0 n23
b0 n24
b0 n25
b1 n26
b1 n27
b0 n28
b0 n29
b0 n30
b1 n31
b0 n32
b0 n33
b0 n34
b0 n35
b0 n36
b0 n37
b0 n38
b0 n39
b0 n40
b0 n41
b0000 n42
b0 n43
b1 n44
b1 n45
b0 n46
b1 n47
b1 n48
b1 n49
b0 n50
b1 n51
b1 n52
b0 n53
b0 n54
b000000000 n55
b1 n56
b111111111 n57
b0 n58
b0 n59
b0 n60
b0 n61
b0 n62
b0 n63
b00000000 n64
b0 n65
b0 n66
b1 n67
b0 n68
b0 n69
b0 n70
b0 n71
b0 n72
b00000000 n73
b0 n74
b0 n75
b0000 n76
